%YAML 1.1
%TAG !u! tag:unity3d.com,2011:
--- !u!114 &11400000
MonoBehaviour:
  m_ObjectHideFlags: 0
  m_CorrespondingSourceObject: {fileID: 0}
  m_PrefabInstance: {fileID: 0}
  m_PrefabAsset: {fileID: 0}
  m_GameObject: {fileID: 0}
  m_Enabled: 1
  m_EditorHideFlags: 0
  m_Script: {fileID: 11500000, guid: d213aa13d8906394294c50083188c77a, type: 3}
  m_Name: TutorialCallbacks
  m_EditorClassIdentifier: 
  _tutorialContainer: {fileID: 11400000, guid: c88eae155757bab4c9b9b028dd8d3112, type: 2}
