%YAML 1.1
%TAG !u! tag:unity3d.com,2011:
--- !u!114 &11400000
MonoBehaviour:
  m_ObjectHideFlags: 0
  m_CorrespondingSourceObject: {fileID: 0}
  m_PrefabInstance: {fileID: 0}
  m_PrefabAsset: {fileID: 0}
  m_GameObject: {fileID: 0}
  m_Enabled: 1
  m_EditorHideFlags: 0
  m_Script: {fileID: 11500000, guid: ff771ccdf4150419d9ff4d342b069aae, type: 3}
  m_Name: 1-Preparation
  m_EditorClassIdentifier: 
  m_Paragraphs:
    m_Items:
    - m_Type: 6
      Title:
        m_Untranslated: 
      Text:
        m_Untranslated: 
      m_Tutorial: {fileID: 0}
      m_Image: {fileID: 0}
      m_Video: {fileID: 0}
      m_CriteriaCompletion: 0
      m_Criteria:
        m_Items: []
      m_MaskingSettings:
        m_MaskingEnabled: 0
        m_UnmaskedViews: []
      m_Summary: 
      m_Description: 
      m_InstructionBoxTitle: 
      m_InstructionText: 
      m_TutorialButtonText: 
    - m_Type: 0
      Title:
        m_Untranslated: Preparation
      Text:
        m_Untranslated: "After setting up our application in previous tutorial and
          setting the App Id in the MUN Settings window, we can connect with MUN
          server.\n\nWe need to do two things:\n\u25CF Connect to the master\n\u25CF
          Create a room and join it\n\nYou can do each of the activities using the
          <b>MUNNetwork</b> class."
      m_Tutorial: {fileID: 0}
      m_Image: {fileID: 0}
      m_Video: {fileID: 0}
      m_CriteriaCompletion: 0
      m_Criteria:
        m_Items: []
      m_MaskingSettings:
        m_MaskingEnabled: 0
        m_UnmaskedViews: []
      m_Summary: 
      m_Description: 
      m_InstructionBoxTitle: 
      m_InstructionText: 
      m_TutorialButtonText: 
    - m_Type: 1
      Title:
        m_Untranslated: Explore TutorialConnectToMaster class
      Text:
        m_Untranslated: The class <b>inherits from MUNobehavior.</b> Connect to the
          master in the Awake function and then joins a random room in <b>OnConnectedToMaster
          callback.</b>
      m_Tutorial: {fileID: 0}
      m_Image: {fileID: 0}
      m_Video: {fileID: 0}
      m_CriteriaCompletion: 0
      m_Criteria:
        m_Items: []
      m_MaskingSettings:
        m_MaskingEnabled: 0
        m_UnmaskedViews: []
      m_Summary: 
      m_Description: 
      m_InstructionBoxTitle: 
      m_InstructionText: 
      m_TutorialButtonText: 
    - m_Type: 2
      Title:
        m_Untranslated: 
      Text:
        m_Untranslated: 'Tutorial X: Make the best game!'
      m_Tutorial: {fileID: 0}
      m_Image: {fileID: 0}
      m_Video: {fileID: 0}
      m_CriteriaCompletion: 0
      m_Criteria:
        m_Items: []
      m_MaskingSettings:
        m_MaskingEnabled: 0
        m_UnmaskedViews: []
      m_Summary: 
      m_Description: 
      m_InstructionBoxTitle: 
      m_InstructionText: 
      m_TutorialButtonText: 
  m_CameraSettings:
    m_CameraMode: 0
    m_FocusMode: 0
    m_Orthographic: 0
    m_Size: 0
    m_Pivot: {x: 0, y: 0, z: 0}
    m_Rotation: {x: 0, y: 0, z: 0, w: 0}
    m_FrameObject:
      m_SceneGuid: 
      m_GameObjectGuid: 
      m_SerializedComponentType:
        m_TypeName: 
      m_ComponentIndex: 0
      m_AssetObject: {fileID: 0}
      m_Prefab: {fileID: 0}
    m_Enabled: 0
  NextButton:
    m_Untranslated: Next
  DoneButton:
    m_Untranslated: Done
  m_CompletedSound: {fileID: 8300000, guid: 2aa2357be5c79f447946caaa0621406f, type: 3}
  m_AutoAdvance: 0
  Showing:
    m_PersistentCalls:
      m_Calls: []
  Shown:
    m_PersistentCalls:
      m_Calls:
      - m_Target: {fileID: 11400000, guid: 41dc86308ac98dd49819984cd6e87503, type: 2}
        m_TargetAssemblyTypeName: FirstMultiplayerTutorialCallbacks, TutorialEditor
        m_MethodName: PingConnectToMaster
        m_Mode: 1
        m_Arguments:
          m_ObjectArgument: {fileID: 0}
          m_ObjectArgumentAssemblyTypeName: UnityEngine.Object, UnityEngine
          m_IntArgument: 0
          m_FloatArgument: 0
          m_StringArgument: 
          m_BoolArgument: 0
        m_CallState: 1
      - m_Target: {fileID: 11400000, guid: 41dc86308ac98dd49819984cd6e87503, type: 2}
        m_TargetAssemblyTypeName: FirstMultiplayerTutorialCallbacks, TutorialEditor
        m_MethodName: PlayCorrectSound
        m_Mode: 1
        m_Arguments:
          m_ObjectArgument: {fileID: 0}
          m_ObjectArgumentAssemblyTypeName: UnityEngine.Object, UnityEngine
          m_IntArgument: 0
          m_FloatArgument: 0
          m_StringArgument: 
          m_BoolArgument: 0
        m_CallState: 1
  Staying:
    m_PersistentCalls:
      m_Calls: []
  CriteriaValidated:
    m_PersistentCalls:
      m_Calls: []
  MaskingSettingsChanged:
    m_PersistentCalls:
      m_Calls: []
  NonMaskingSettingsChanged:
    m_PersistentCalls:
      m_Calls: []
  m_OnBeforePageShown:
    m_PersistentCalls:
      m_Calls: []
  m_OnAfterPageShown:
    m_PersistentCalls:
      m_Calls: []
  m_OnTutorialPageStay:
    m_PersistentCalls:
      m_Calls: []
  m_OnBeforeTutorialQuit:
    m_PersistentCalls:
      m_Calls: []
  m_NextButton: Next
  m_DoneButton: Done
