%YAML 1.1
%TAG !u! tag:unity3d.com,2011:
--- !u!114 &11400000
MonoBehaviour:
  m_ObjectHideFlags: 0
  m_CorrespondingSourceObject: {fileID: 0}
  m_PrefabInstance: {fileID: 0}
  m_PrefabAsset: {fileID: 0}
  m_GameObject: {fileID: 0}
  m_Enabled: 1
  m_EditorHideFlags: 0
  m_Script: {fileID: 11500000, guid: a32df98e15125594ea5c521c8e8e6eb9, type: 3}
  m_Name: FirstMultiplayerTutorialCallbacks
  m_EditorClassIdentifier: 
  goodSound: {fileID: 8300000, guid: 2aa2357be5c79f447946caaa0621406f, type: 3}
