{
    "name": "TutorialEditor",
    "rootNamespace": "",
    "references": [
        "GUID:5228d7cc8bb4f664d9baa42d8ed0523d",
        "GUID:4b9b5d43f616adb4cbe803d958aa43b8",
        "GUID:dca86c3434c38674a865b8fad7a81c91"
    ],
    "includePlatforms": [
        "Editor"
    ],
    "excludePlatforms": [],
    "allowUnsafeCode": false,
    "overrideReferences": false,
    "precompiledReferences": [],
    "autoReferenced": true,
    "defineConstraints": [],
    "versionDefines": [],
    "noEngineReferences": false
}